TPT model
…
  ts <- seq(0, pd, by)
  tibble(x = ts,
         y = hill(ts, Xf, Yf, hf) * (1 - hill(ts, Xmp * pd, Ym, hm)))
}

Note the parameterization that is similar to the parameterization of the plot_probabilities() function. This is what it gives:

dropping_probability()

# A tibble: 512 × 2
        x        y
    <dbl>    <dbl>
 1 0      0       
 2 0.0783 2.36e-18
 3 0.157  3.02e-16
 4 0.235  5.16e-15
 5 0.313  3.87e-14
 6 0.391  1.84e-13
 7 0.470  6.61e-13
 8 0.548  1.94e-12
 9 0.626  4.95e-12
10 0.705  1.13e-11
# ℹ 502 more rows
…
